…
>  1st Qu.:     2.00   1st Qu.:    1.25  
>  Median :     5.00   Median :    1.95  
>  Mean   :    12.41   Mean   :    3.68  
>  3rd Qu.:    12.00   3rd Qu.:    3.75  
>  Max.   : 80995.00   Max.   :38970.00
> ```
> 
> - 구매 수량 `Quantity`는 음수값을 가질 수 없으나 반품 물품에 대해 음수로 나타나 있으므로 확인 후 처리해야 한다. 여기서는 `Quantity`가 음수인 것을 이상치(outlier)라고 간주하고 삭제한다. 
> 
> ```r
> ### Quantity가 음수인 데이터 확인: 반품/회수 물량일 수 있음
> df %>% filter(Quantity < 0)
> ```
> ```
> # A tibble: 18,744 × 8
>    InvoiceNo StockCode Description                       Quantity InvoiceDate         UnitPrice CustomerID Country       
>    [chr]     [chr]     [chr]                                [int] [dttm]                  [dbl] [chr]      [chr]         
>  1 C489449   22087     PAPER BUNTING WHITE LACE               -12 2009-12-01 10:33:00      2.95 16321      Australia 
>  2 C489449   85206A    CREAM FELT EASTER EGG BASKET            -6 2009-12-01 10:33:00      1.65 16321      Australia 
>  3 C489449   21895     POTTING SHED SOW 'N' GROW SET           -4 2009-12-01 10:33:00      4.25 16321      Australia 
>  4 C489449   21896     POTTING SHED TWINE                      -6 2009-12-01 10:33:00      2.1  16321      Australia 
>  5 C489449   22083     PAPER CHAIN KIT RETRO SPOT             -12 2009-12-01 10:33:00      2.95 16321      Australia 
>  6 C489449   21871     SAVE THE PLANET MUG                    -12 2009-12-01 10:33:00      1.25 16321      Australia 
>  7 C489449   84946     ANTIQUE SILVER TEA GLASS ETCHED        -12 2009-12-01 10:33:00      1.25 16321      Australia 
>  8 C489449   84970S    HANGING HEART ZINC T-LIGHT HOLDER      -24 2009-12-01 10:33:00      0.85 16321      Australia
>  9 C489449   22090     PAPER BUNTING RETRO SPOTS              -12 2009-12-01 10:33:00      2.95 16321      Australia     
> 10 C489459   90200A    PURPLE SWEETHEART BRACELET              -3 2009-12-01 10:44:00      4.25 17592      United Kingdom
> # ℹ 18,734 more rows
> # ℹ Use `print(n = ...)` to see more rows
…
> ```
> # A tibble: 2 × 2
>   duplicated      n
>   [lgl]       [int]
> 1 FALSE      779494
> 2 TRUE        26125
> ```
> 
> ```r
> ### 중복 데이터 확인
> df %>% 
>   filter(duplicated(df) | duplicated(df, fromLast = T))
> ```
> ```
> # A tibble: 50,838 × 8
>    InvoiceNo StockCode Description                       Quantity InvoiceDate         UnitPrice CustomerID Country       
>    [chr]     [chr]     [chr]                                [int] [dttm]                  [dbl] [chr]      [chr]         
>  1 489517    21913     VINTAGE SEASIDE JIGSAW PUZZLES           1 2009-12-01 11:34:00      3.75 16329      United Kingdom 
>  2 489517    21912     VINTAGE SNAKES & LADDERS                 1 2009-12-01 11:34:00      3.75 16329      United Kingdom 
>  3 489517    21821     GLITTER STAR GARLAND WITH BELLS          1 2009-12-01 11:34:00      3.75 16329      United Kingdom 
>  4 489517    22319     HAIRCLIPS FORTIES FABRIC ASSORTED       12 2009-12-01 11:34:00      0.65 16329      United Kingdom 
>  5 489517    22130     PARTY CONE CHRISTMAS DECORATION          6 2009-12-01 11:34:00      0.85 16329      United Kingdom
>  6 489517    21912     VINTAGE SNAKES & LADDERS                 1 2009-12-01 11:34:00      3.75 16329      United Kingdom 
>  7 489517    21491     SET OF THREE VINTAGE GIFT WRAPS          1 2009-12-01 11:34:00      1.95 16329      United Kingdom 
>  8 489517    22130     PARTY CONE CHRISTMAS DECORATION          6 2009-12-01 11:34:00      0.85 16329      United Kingdom 
>  9 489517    22319     HAIRCLIPS FORTIES FABRIC ASSORTED       12 2009-12-01 11:34:00      0.65 16329      United Kingdom
> 10 489517    21913     VINTAGE SEASIDE JIGSAW PUZZLES           1 2009-12-01 11:34:00      3.75 16329      United Kingdom
> # ℹ 50,828 more rows
> # ℹ Use `print(n = ...)` to see more rows
…
![[Pasted image 20240220143008.png|center]]

```r
df_mart %>% 
  count(Country) %>% 
  arrange(desc(n)) %>% 
  mutate(ratio = n/sum(n))
```
```
# A tibble: 33 × 3
   Country            n      ratio
   <fct>          <int>      <dbl>
 1 United Kingdom  6871 0.916744  
 2 Germany          150 0.0200133 
 3 France           144 0.0192128 
 4 Belgium           38 0.00507005
 5 Spain             33 0.00440294
 6 Australia         25 0.00333556
 7 Italy             25 0.00333556
 8 Netherlands       23 0.00306871
 9 Switzerland       23 0.00306871
10 Portugal          22 0.00293529
# ℹ 23 more rows
# ℹ Use `print(n = ...)` to see more rows
```
…
#### Dummy encoding

범주형 변수는 `Country`, `peak_time`, `season` 이렇게 3개가 있었는데, 각각 2가지, 3가지, 4가지 수준을 가지고 있다. 해당 변수들에 대해 dummy encoding을 해주면 다음과 같아진다:

```r
basic_rec %>% 
  step_dummy(all_nominal_predictors()) %>% 
  prep(train) %>% 
  bake(train) %>% 
  select(starts_with("Country"), starts_with("peak_time"), starts_with("season"))
```
```
# A tibble: 5,245 × 6
   Country_UK peak_time_Evening peak_time_Morning season_Spring season_Summer season_Winter
        <dbl>             <dbl>             <dbl>         <dbl>         <dbl>         <dbl>
 1          0                 0                 0             0             0             1 
 2          0                 0                 0             0             0             1 
 3          0                 0                 1             0             0             1 
 4          0                 0                 1             0             0             1 
 5          0                 0                 0             0             0             1 
 6          1                 0                 0             0             0             1 
 7          1                 0                 0             0             0             1 
 8          1                 0                 1             0             0             1 
 9          1                 0                 0             0             0             1
10          1                 1                 0             0             0             1
# ℹ 5,235 more rows
# ℹ Use `print(n = ...)` to see more rows
```
…
![[resampling.svg|center]]


Tidymodels에서는 [`rsample`](https://rsample.tidymodels.org/) 패키지를 통해 resample scheme을 구축한 다음 모델에 대한 성능을 측정한다. 여기서는 **<font style="color:orange">10-fold CV repeated 5 times (using stratification)</font>**로 진행한다.

```r
set.seed(123)
train_cv <- train %>% 
  vfold_cv(v = 10, repeats = 5, strata = target)
train_cv
```
```
#  10-fold cross-validation repeated 5 times using stratification 
# A tibble: 50 × 3
   splits             id      id2   
   <list>             <chr>   <chr> 
 1 <split [4720/525]> Repeat1 Fold01 
 2 <split [4720/525]> Repeat1 Fold02 
 3 <split [4720/525]> Repeat1 Fold03 
 4 <split [4720/525]> Repeat1 Fold04 
 5 <split [4720/525]> Repeat1 Fold05 
 6 <split [4721/524]> Repeat1 Fold06 
 7 <split [4721/524]> Repeat1 Fold07 
 8 <split [4721/524]> Repeat1 Fold08 
 9 <split [4721/524]> Repeat1 Fold09
10 <split [4721/524]> Repeat1 Fold10
# ℹ 40 more rows
# ℹ Use `print(n = ...)` to see more rows
```

- tidymodels에서는 training/testing의 splitting 후, training set을 training/validation으로 split된 것을 analysis/assessmemt set으로 부른다. 
> [!example]- Training/Validation ⇒ Analysis/Assessment
> ```r
> train_cv %>% 
>   tidy() %>% 
>   group_by(Repeat, Fold, Data) %>% 
>   count() %>% 
>   print(n = 20)
> ```
> ```
> # A tibble: 100 × 4
> # Groups:   Repeat, Fold, Data [100]
>    Repeat  Fold   Data           n
>    [chr]   [chr]  [chr]      [int]
>  1 Repeat1 Fold01 Analysis    4720
>  2 Repeat1 Fold01 Assessment   525 
>  3 Repeat1 Fold02 Analysis    4720
>  4 Repeat1 Fold02 Assessment   525 
>  5 Repeat1 Fold03 Analysis    4720
>  6 Repeat1 Fold03 Assessment   525 
>  7 Repeat1 Fold04 Analysis    4720
>  8 Repeat1 Fold04 Assessment   525 
>  9 Repeat1 Fold05 Analysis    4720
> 10 Repeat1 Fold05 Assessment   525
> 11 Repeat1 Fold06 Analysis    4721
> 12 Repeat1 Fold06 Assessment   524
> 13 Repeat1 Fold07 Analysis    4721
> 14 Repeat1 Fold07 Assessment   524
> 15 Repeat1 Fold08 Analysis    4721
> 16 Repeat1 Fold08 Assessment   524
> 17 Repeat1 Fold09 Analysis    4721
> 18 Repeat1 Fold09 Assessment   524
> 19 Repeat1 Fold10 Analysis    4721
> 20 Repeat1 Fold10 Assessment   524
> # ℹ 80 more rows
> # ℹ Use `print(n = ...)` to see more rows
…
